1 10 20
100 200 125
201 210 89
900 1000 174
4633 3947 215
6191 5528 262
836 9474 262
9073 6459 257
130 8756 262
6831 2973 262
1107 168 179
8546 4175 262
9328 1891 262
1410 7139 262
4832 1520 238
9437 428 262
8847 6579 257
2821 8754 262
2829 4921 238
537 5361 238
9895 9267 242
7781 7350 239
7244 9807 260
9750 3317 262
1075 3519 217
476 969 179
4119 1037 238
9619 5710 262
3308 87 217
8605 2005 262
3578 7355 262
3656 1545 217
1815 8448 262
9927 7730 260
4261 5670 236
3555 7749 262
562 2352 183
860 416 171
8201 7235 252
7316 1793 262
3190 1671 217
7081 4307 262
5759 9537 262
401 8048 262
7243 2941 262
3917 3646 238
7984 4452 262
6821 2094 262
4440 142 238
1750 4054 238
9820 8423 260
5324 4859 210
8221 4177 262
6289 4238 262
7837 969 262
7446 8697 252
2598 8409 262
1847 4400 238
2113 1174 180
5139 1895 238
582 4861 238
5288 6119 236
3952 9958 262
5643 2894 238
9797 970 262
4115 9281 262
7490 7467 164
3495 5261 238
1498 7687 262
8897 2563 262
1766 4887 238
2465 6813 262
2279 819 183
5563 3409 238
6352 568 262
7396 3468 262
5179 6496 262
6999 6934 257
1201 777 182
7 8461 262
6592 6574 244
835 3585 217
4556 6834 262
1353 8985 262
6477 8659 257
7721 1482 262
6245 1980 262
5238 171 238
486 7982 262
8029 7787 252
96 9437 262
5232 7624 262
5225 5635 236
8738 7370 252
7764 5386 262
9478 3419 262
6670 6145 262
6832 2537 262
4737 7317 262
4625 1617 238
700 4485 238
3962 5535 215
7937 119 262
4151 9292 262
2809 8578 262
5678 4901 236
9808 9410 198
6683 4616 262
7647 411 262
1630 9626 262
6788 33 262
9593 729 262
6494 2670 262
2094 8322 262
9568 8755 260
1275 3215 217
402 7953 262
3311 8987 262
4204 8839 262
4889 579 238
7707 9022 252
9500 4441 262
3604 6425 262
8707 4045 262
5010 9303 262
7692 2136 262
6592 8108 257
9087 6512 257
3777 2546 238
1437 3347 217
2792 6586 262
1649 4287 238
6552 9432 260
1963 7152 262
2924 917 217
8936 419 262
1096 6687 262
2162 8168 262
782 188 171
9818 5679 262
6179 4749 262
880 1166 182
7751 61 262
171 9299 262
3946 9154 262
496 9163 262
6795 4853 262
1280 5194 238
7019 4267 262
1854 6954 262
6133 4442 236
5015 8160 262
6093 6141 187
801 3734 238
3131 9190 262
791387 966165 525
594645 989494 525
349968 768091 509
886185 912747 476
817311 977164 525
203501 629418 509
469560 737377 509
200035 602485 470
882056 929902 476
889509 894715 370
905249 996617 507
502894 516553 470
866155 869233 357
723171 745462 424
576450 834391 509
915152 999215 507
835483 868717 525
334590 360729 441
762570 880684 525
975708 977587 383
877485 928428 476
985375 985462 246
114460 762691 509
377125 706617 509
498481 993699 525
167668 193712 365
676549 795179 504
262080 516168 470
207015 385049 443
208088 288588 443
602873 906550 525
779236 860212 525
360972 931526 525
351741 659826 509
962535 991256 458
517392 897669 525
320626 667686 509
101035 318394 443
416112 569384 470
145570 871939 525
372728 509608 449
218326 861863 525
597766 854571 525
405949 721150 509
993589 998308 440
302214 708639 509
451244 627812 509
848787 854935 419
737176 823051 468
649726 672560 442
341946 553204 470
453701 454213 338
397819 414860 449
711626 916960 525
474795 585891 470
528527 728483 509
698367 932759 525
524733 602206 452
755192 904910 525
728848 940136 525
258686 424170 449
259213 674986 509
740446 744209 362
236114 422644 449
122498 315523 443
905268 924409 476
680891 939692 525
654949 884114 525
455605 467068 444
606610 722171 509
851705 955724 507
405857 497016 449
509923 970066 525
660173 968987 525
661274 747564 504
827865 859962 525
148019 175542 383
343859 374264 441
823012 857742 525
994021 997542 365
993746 994011 246
937887 943043 507
172227 245417 443
567316 879990 525
859414 964553 507
272201 576141 470
936996 949463 507
175160 672160 509
322616 838678 525
612037 710379 509
852288 890087 445
617819 633307 509
254915 391214 441
602740 897774 525
169584 949504 525
737405 761504 424
410019 519592 470
565902 735527 509
268131 477522 449
738011 977272 525
