183441 731052 509
152160 337040 443
800316 7930 509
926220 799 525
281558 947593 525
810783 174547 509
914523 567236 525
183634 284410 443
948433 394832 525
112878 596451 470
630007 215980 509
593149 743555 509
906652 175931 525
12695 914891 525
822127 283925 509
217474 545058 470
497043 274025 449
302577 868420 525
319398 629049 509
809430 675588 504
359289 92216 443
953017 974029 458
117110 362476 443
184200 716633 509
296559 260355 407
785331 293144 509
265191 363630 441
565302 579523 390
152140 531488 470
610798 762206 509
621627 477074 470
760494 771353 468
48656 46372 314
18317 376786 443
470859 772331 509
706846 200575 509
692418 195604 509
137996 416966 449
892564 909981 445
363545 897275 525
994816 868431 507
532611 247805 470
410865 483986 444
63289 755919 509
510816 956979 525
417477 877031 525
512211 638448 509
132444 153980 375
65221 443599 449
902250 476467 525
685153 597954 509
735765 167398 509
172899 702953 509
128222 866625 525
443907 505271 444
310634 3808 443
94492 969348 525
727205 802487 468
408151 994323 525
461564 576061 470
706386 221809 509
494260 27064 449
795931 358226 509
921010 258936 525
278038 436680 449
756858 182030 509
312922 323950 371
223877 571280 470
115464 207510 383
304102 792939 509
114500 130304 349
142 835596 509
849520 650637 525
700412 467848 509
845040 467335 525
228015 177846 386
224569 164428 386
761859 707123 424
909685 63017 525
284641 479950 449
211027 375545 443
234066 908150 525
525579 721229 509
696318 838538 525
456524 607037 470
455769 879667 525
289120 320656 384
153161 289529 443
809521 737389 468
281547 509034 449
772789 700378 504
652856 459653 509
997571 642045 525
434587 813957 509
964126 212513 525
316255 559976 470
65283 265228 443
830953 429451 509
286659 205563 443
215748 680301 509
246176 652725 509
189936 523678 470
492747 193501 449
736797 836000 468
611288 176662 470
889233 36762 525
977550 427083 525
570550 29139 470
979863 157058 525
294836 803915 509
27734 975152 525
540114 847727 525
503228 155088 449
774835 900177 525
140337 793528 509
325719 673326 509
688764 868956 525
591042 207948 470
284595 663400 509
978231 257376 525
16728 904075 525
94578 768857 509
393608 571474 470
104584 514246 470
995235 254116 525
34929 897793 525
262726 745329 509
227596 541166 470
72047 189128 383
679465 767188 504
452849 346711 449
670566 939553 525
465241 578394 470
14599 640603 509
241620 151546 443
679494 378947 509
67950 311838 443
133559 543762 470
990472 638144 525
399390 961366 525
993635 718157 525
885238 213378 525
815537 313223 509
938762 902367 476
489484 967964 525
925576 342172 525
979740 224612 525
769793 443433 509
950466 969326 414
108199 998383 525
30334 360920 443
646863 895528 525
343844 550481 470
788576 108745 509
349021 693952 509
788245 410950 509
898399 589800 525
484926 9071 449
791078 54909 509
277101 81527 443
330100 587246 470
169451 81901 383
705167 626586 504
142733 728024 509
628432 151927 509
72224 761981 509
668216 945122 525
846528 445658 525
998463 685193 525
417029 351568 449
349100 249182 441
105820 777341 509
100912 743335 509
740217 4412 509
134803 572013 470
83941 9543 351
186011 684177 509
976165 693604 525
920565 724642 525
988039 943917 458
216959 316379 443
661195 42773 509
373402 769989 509
665081 757994 504
816803 162096 509
397354 732465 509
151047 896768 525
203985 494710 449
436112 181716 449
959739 829181 525
763519 11717 509
336832 24085 443
684271 747940 504
57753 770770 509
442052 378089 449
653047 231889 509
317769 76714 443
310938 809478 509
427303 63580 449
179806 541599 470
668215 77913 509
870592 889739 445
527291 12293 470
845864 171841 525
68420 39968 340
502211 645613 509
931590 821199 525
906595 747310 525
176829 707198 509
25579 719571 509
223068 637502 509
427644 361442 449
49607 30478 324
247329 672847 509
942745 943300 277
914335 554474 525
468230 495657 426
576349 490463 470
896399 668909 525
356266 785621 509
955872 273157 525
726399 841999 525
282407 344664 389
127809 769800 509
653806 331078 509
66953 315344 443
424977 854362 525
757766 877893 525
649891 582949 509
392673 47949 443
628230 124192 509
9064 158063 383
427198 630038 509
457770 384410 449
998200 488207 525
881986 135480 525
106448 683833 509
340782 241421 407
310360 994456 525
757570 27151 509
25346 80587 351
310112 731988 509
208976 917670 525
120256 829983 509
537858 299329 470
605874 23516 470
423443 621757 470
683222 795237 504
962918 973092 458
393415 150623 443
